Reproducible Research: Peer Assessment 1
…
## Weekday Weekend 
##   12960    4608

Crio o dataframe medias_dias com as medias de passadas aos dias uteis e fins de semana

Create a dataframe medias_dias with the average of the weekdays and weekend

medias_dias <- data_na %>%
                      group_by(tipo_dia,interval) %>%
                      summarise(steps = mean(steps))
medias_dias

## # A tibble: 576 x 3
## # Groups:   tipo_dia [?]
##    tipo_dia interval steps
##    <fct>       <int> <dbl>
##  1 Weekday         0  7.01
##  2 Weekday         5  5.38
##  3 Weekday        10  5.14
##  4 Weekday        15  5.16
##  5 Weekday        20  5.07
##  6 Weekday        25  6.30
##  7 Weekday        30  5.61
##  8 Weekday        35  6.01
##  9 Weekday        40  4.98
## 10 Weekday        45  6.58
## # ... with 566 more rows
…
Alternative Mode

Primeiro criamos dataFrames para dias uteis e fins de semana

First create a weekdays and weekend dataFrames

weekday_db <- medias_dias[medias_dias$tipo_dia == "Weekday", ]
weekday_db

## # A tibble: 288 x 3
## # Groups:   tipo_dia [1]
##    tipo_dia interval steps
##    <fct>       <int> <dbl>
##  1 Weekday         0  7.01
##  2 Weekday         5  5.38
##  3 Weekday        10  5.14
##  4 Weekday        15  5.16
##  5 Weekday        20  5.07
##  6 Weekday        25  6.30
##  7 Weekday        30  5.61
##  8 Weekday        35  6.01
##  9 Weekday        40  4.98
## 10 Weekday        45  6.58
## # ... with 278 more rows

weekend_db <- medias_dias[medias_dias$tipo_dia == "Weekend", ]
weekend_db

## # A tibble: 288 x 3
## # Groups:   tipo_dia [1]
##    tipo_dia interval steps
##    <fct>       <int> <dbl>
##  1 Weekend         0  4.67
##  2 Weekend         5  4.67
##  3 Weekend        10  4.67
##  4 Weekend        15  4.67
##  5 Weekend        20  4.67
##  6 Weekend        25  7.92
##  7 Weekend        30  4.67
##  8 Weekend        35  4.67
##  9 Weekend        40  4.67
## 10 Weekend        45  5.05
## # ... with 278 more rows
…
