…
```
## Weekday Weekend 
##   12960    4608
```


```r
medias_dias <- data_na %>%
                      group_by(modo,interval) %>%
                      summarise(steps = mean(steps))
medias_dias
```

```
## # A tibble: 576 x 3
## # Groups:   modo [?]
##    modo    interval steps
##    <fct>      <int> <dbl>
##  1 Weekday        0  7.01
##  2 Weekday        5  5.38
##  3 Weekday       10  5.14
##  4 Weekday       15  5.16
##  5 Weekday       20  5.07
##  6 Weekday       25  6.30
##  7 Weekday       30  5.61
##  8 Weekday       35  6.01
##  9 Weekday       40  4.98
## 10 Weekday       45  6.58
## # ... with 566 more rows
```
…
